;blend;predictions;frsemcor_0;base_1;sampa_1;frsemcor_1;synset_1;UB_1;cat_gram_1;base_2;sampa_2;frsemcor_2;synset_2;UB_2;cat_gram_2
0;abandogiciel;Artifact;Communication;abandonné;aba~dOne;;isolated.s.04;;adjectif;logiciel;lOZisjEl ;Communication;software.n.01;communication.n.02;nom
1;adulescence;State;Time;adulte;adylt;Person;adult.n.01;person.n.01;nom;adolescence;adOlEsa~s;Time;adolescence.n.02;state.n.02;nom
2;adulescent;State;Person;adulte;adylt;Person;adult.n.01;person.n.01;nom;adolescent;adOlEsa~;Person;adolescent.n.01;person.n.01;nom
3;alicament;Substance;Food;aliment;alima~;Food;food.n.01;food.n.01;nom;médicament;medikama~;Substance;medicine.n.02;;nom
4;alphagramme;Person;Communication;alphabétique;alfabetik;;alphabetic.a.02;;adjectif;anagramme;anagR\am;Communication;anagram.n.01;relation.n.01;nom
5;annonciel;Communication;Communication;annonce;anO~s;Communication;ad.n.01;communication.n.02;nom;logiciel;lOZisjEl ;Communication;software.n.01;communication.n.02;nom
6;apathéisme;Feeling;Cognition;apathie;apati;Feeling;apathy.n.01;feeling.n.01;nom;théisme;teism;Cognition;theism.n.01;cognition.n.01;nom
7;apathéiste;nan;Person;apathie;apati;Feeling;apathy.n.01;feeling.n.01;nom;théiste;teist;Person;theist.n.01;person.n.01;nom
8;automagique;Artifact;;automatique;Otomatik;;automatic.a.01;;adjectif;magique;maZik;;charming.s.02;;adjectif
9;banjoline;Person;Artifact;banjo;ba~Zo;Artifact;banjo.n.01;artifact.n.01;nom;mandoline;ma~dOlin;Artifact;mandolin.n.01;artifact.n.01;nom
10;beurgeois;Person;Person;beur;b9R\;Person;;;nom;bourgeois;buR\Zwa;Person;bourgeois.n.02;person.n.01;nom, adjectif
11;beurgeoisie;Feeling;GroupxPerson;beur;b9R\;Person;;;nom;bourgeoisie;buR\Zwazi;GroupxPerson;middle_class.n.01;group.n.01;nom
12;bifle;Feeling;Act;bite;bit;Body;cock.n.01;;nom;gifle;Zifl;Act;smack.n.06;act.n.02;nom
13;bistronomique;Person;;bistrot;bistR\o;Institution;bistro.n.01;artifact.n.01;nom;gastronomique;gastR\onomik;;;;adjectif
14;burkini;Act;Artifact;burqa;buR\ka;Artifact;;;nom;bikini;bikini;Artifact;bikini.n.02;artifact.n.01;nom
15;clavardage;Feeling;Act/Communication;clavier;klavje;Artifact;keyboard.n.01;artifact.n.01;nom;bavardage;bavaR\daZ;Act;;;nom
16;coca-colonisation;nan;Act;coca-cola;kOkakOla;Institution;;;nom propre;colonisation;kOlOnizasjO~;Act;colonization.n.01;act.n.02;nom
17;coca-coloniser;nan;;coca-cola;kOkakOla;Institution;;;nom propre;coloniser;cOlOnize;;colonize.v.01;;verbe
18;consommacteur;Person;Person;consommateur;kO~somat9R\;Person;consumer.n.01;person.n.01;nom;activiste;aktivist;Person;militant.n.01;person.n.01;nom, adjectif
19;copillage;Act;Act;copie;kOpi;Act;copying.n.01;act.n.02;nom;pillage;pijaZ;Act;plundering.n.01;act.n.02;nom
20;costumédien;nan;Person;costumade;kOstymad;Act;;;nom;comédien;kOmedjE~;Person;actor.n.01;person.n.01;nom
21;costumédienne;nan;Person;costumade;kOstymad;Act;;;nom;comédienne;kOmedjEn;Person;;;nom
22;dégringouliner;nan;;dégringoler;degR\E~gOle;;plummet.v.01;;verbe;dégouliner;deguline;;;;verbe
23;démocrature;Act;Cognition;démocratie;demokR\asi;Cognition;democracy.n.02;group.n.01;nom;dictature;diktatyR\;Cognition;dictatorship.n.01;group.n.01;nom
24;distribanque;Institution;Artifact;distributeur;distR\ibyt9R\;Artifact;;;nom;banque;ba~k;Institution;depository_financial_institution.n.01;group.n.01;nom
25;documenteur;Person;Cognition;documentaire;dOkyma~tER\;Cognition;documentary.n.01;artifact.n.01;nom;menteur;ma~t9R\;Person;mendacious.s.02;;nom
26;escrologiste;Person;Person;escroc;EskR\o;Person;confidence_man.n.01;person.n.01;nom;écologiste;ekolOZist;Person;environmentalist.n.01;person.n.01;nom, adjectif
27;espiogiciel;Person;Cognition;espion;EspjO~, EspjOn;;spy.v.04;;nom;logiciel;lOZisjEl;Communication;software.n.01;communication.n.02;nom
28;Euramérique;Institution;Object;europe;2R\Op;Object;europe.n.01;object.n.01;nom propre;amérique;ameR\ik;Object;america.n.02;object.n.01;nom propre
29;excimère;Substance;Substance;excité;Eksite;;aroused.s.04;;adjectif;dimère;dimER\;Substance;dimer.n.01;substance.n.01;nom
30;flexécurité;Attribute;Attribute;flexibilité;flEksibilite;Attribute;flexibility.n.02;attribute.n.02;nom;sécurité;sekyR\ite;Attribute;security.n.02;possession.n.02;nom
31;franglais;Cognition;Communication;français;fR\a~sE;Communication;french.n.01;communication.n.02;nom, adjectif;anglais;a~glE;Communication;english.n.01;communication.n.02;nom, adjectif
32;frankinois;nan;Communication;français;fR\a~sE;Communication;french.n.01;communication.n.02;nom, adjectif;kinois;kinwa;Communication;;;nom, adjectif
33;gangsterrorisme;Act;Act/Cognition;gangster;ga~gstER\;Person;gangster.n.01;person.n.01;nom;terrorisme;tER\OR\ism;Act;terrorism.n.01;act.n.02;nom
34;gangsterroriste;Person;Person;gangster;ga~gstER\;Person;gangster.n.01;person.n.01;nom;terroriste;tER\OR\ist;Person;terrorist.n.01;person.n.01;nom, adjectif
35;gonzelle;nan;Person;gonzesse;gO~zEs;Person;dame.n.01;person.n.01;nom;donzelle;dO~zEl;Person;;;nom
36;graticiel;Cognition;Communication;gratis;gR\atis;;;;adjectif;logiciel;lOZisjEl ;Communication;software.n.01;communication.n.02;nom
37;hacktivisme;Person;Cognition;hacker;ak9R\;Person;hacker.n.02;person.n.01;nom;activisme;aktivism;Cognition;activism.n.01;cognition.n.01;nom
38;hacktiviste;Person;Person;hacker;ak9R\;Person;hacker.n.02;person.n.01;nom;activiste;aktivist;Person;militant.n.01;person.n.01;nom, adjectif
39;impostrophe;Person;Communication;imposteur;E~pOst9R\;Person;imposter.n.01;person.n.01;nom;apostrophe;apOstR\Of;Communication;apostrophe.n.02;communication.n.02;nom
40;indigénocide;Act;Act;indigène;E~diZEn;Person;;;nom, adjectif;génocide;ZenOsid;Act;genocide.n.01;act.n.02;nom
41;infobésité;State;State;info;E~fo;Cognition;information.n.01;communication.n.02;nom;obésité;obezite;State;fatness.n.01;attribute.n.02;nom
42;Laurasie;nan;Object;laurentia;loRa~sja;Object;;;nom propre;eurasie;2R\azi;Object;eurasia.n.01;object.n.01;nom
43;luxèse;Feeling;Cognition;luxe;lyks;Possession;;;nom;ascèse;asEz;Cognition;asceticism.n.03;act.n.02;nom
44;machinima;Communication;Communication;machine;maSin;Artifact;machine.n.01;artifact.n.01;nom;cinéma;sinema;Communication;filming.n.01;act.n.02;nom
45;mamange;Person;Person;maman;mama~;Person;ma.n.01;person.n.01;nom;ange;a~Z;Person;darling.n.01;person.n.01;nom
46;manifestivité;Time;Event;manifestation;manifEstasjO~;Event;protest.n.02;event.n.01;nom;festivité;fEstivite;Event;celebration.n.01;event.n.01;nom
47;médikit;Artifact;Artifact;médical;medikal;;medical.a.01;;adjectif;kit;kit;Artifact;;;nom
48;merdia;Communication;GroupxInstitution;merde;mER\d;Substance;crap.n.01;substance.n.01;nom;média;medja;GroupxInstitution;;;nom
49;milichien;Person;Person;milicien;milisjE~;Person;militiaman.n.01;person.n.01;nom;chien;SjE~;Animal;dog.n.01;animal.n.01;nom
50;nostalgérie;Feeling;Feeling;nostalgie;nOstalzi;Feeling;nostalgia.n.01;feeling.n.01;nom;algérie;alZeR\i;Institution;algeria.n.01;object.n.01;nom propre
51;papange;Person;Person;papa;papa;Person;dad.n.01;person.n.01;nom;ange;a~Z;Person;darling.n.01;person.n.01;nom
52;parange;Person;Person;parent;paR\a~;Person;parent.n.01;person.n.01;nom;ange;a~Z;Person;darling.n.01;person.n.01;nom
53;partagiciel;Cognition;Communication;partage;paR\taZ;Act;;;nom;logiciel;lOZisjEl;Communication;software.n.01;communication.n.02;nom
54;permittent;Act;Person;permanent;pER\mana~;;chronic.s.02;;adjectif;intermittent;E~tER\mita~;Person;;;nom, adjectif
55;photocopillage;Act;Act;photocopie;fotokOpi;Act;photocopy.n.01;artifact.n.01;nom;pillage;pijaZ;Act;plundering.n.01;act.n.02;nom
56;photostop;nan;Act;photo;foto;Act;photograph.v.01;;nom;autostop;otostOp;Act;hitchhike.v.01;;nom
57;potimarron;Plant;Food;potiron;pOtiR\O~;Food;squash.n.02;;nom;marron;maR\O~;Food;chestnut.n.03;object.n.01;nom
58;pourriel;Artifact;Communication;pourri;puR\i;;;;adjectif;courriel;kuR\jEl;Communication;electronic_mail.n.01;act.n.02;nom
59;publiciel;Communication;Communication;public;pyblik;;open.s.04;;adjectif;logiciel;lOZisjEl;Communication;software.n.01;communication.n.02;nom
60;résogiciel;Artifact;Communication;réseau;R\ezo;Cognition;network.n.01;group.n.01;nom;logiciel;loZisjEl;Communication;software.n.01;communication.n.02;nom
61;restauroute;Artifact;Institution;restaurant;R\EstOR\a~;Institution;restaurant.n.01;artifact.n.01;nom;route;rut;Artifact;highway.n.01;artifact.n.01;nom
62;rurbanisme;Artifact;Cognition;rural;R\yR\al;;rural.a.02;;adjectif;urbanisme;yR\banism;Act;city_planning.n.01;act.n.02;nom
63;sensure;Cognition;State;sens;sa~s;Communication;sense.n.02;communication.n.02;nom;censure;sa~syR\;Act;;;nom
64;séparasite;State;Person;séparatiste;sepaR\atist;Person;separatist.n.01;person.n.01;nom;parasite;paR\azit;Person;leech.n.02;person.n.01;nom, adjectif
65;sextoter;nan;;sexe;sEks;Act;sexual_activity.n.01;process.n.06;nom;textoter;tekstOte;;;;verbe
66;sextrémisme;Feeling;Cognition;sexe;sEks;Act;sex.n.04;attribute.n.02;nom;extrémisme;EkstR\emism;Cognition;extremism.n.01;cognition.n.01;nom
67;sextrémiste;Person;Person;sexe;sEks;Act;sex.n.04;attribute.n.02;nom;extrémiste;EkstR\emist;Person;extremist.n.01;person.n.01;nom, adjectif
68;Sidaction;Act;Institution;sida;sida;State;aids.n.01;state.n.02;nom;action;aksjO~;Act;;;nom
69;skatinette;nan;Artifact;skate;skEt;Artifact;skateboard.n.01;artifact.n.01;nom;trotinette;tR\OtinEt;Artifact;;;nom
70;skypero;nan;Act;skype;skajp;Communication;;;nom propre;apéro;apeR\o;Act;;;nom
71;sporno;Feeling;Act;sport;spOR\;Act;sport.n.02;act.n.02;nom;porno;pOR\no;Act;pornography.n.01;act.n.02;nom
72;starchitecte;Person;Person;star;staR\;Person;;;nom;architecte;aR\SitEkt;Person;architect.n.01;person.n.01;nom
73;trouple;Person;GroupxPerson;trois;tR\wa;Quantity;three.s.01;;adjectif;couple;kupl;GroupxPerson;couple.n.02;group.n.01;nom
74;twittérature;nan;Communication;twitter;twit9R\;Communication;;;nom propre;littérature;liteR\atyR\;Communication;literature.n.01;communication.n.02;nom
75;vidéaste;Person;Person;vidéo;video;Communication;video_recording.n.01;artifact.n.01;nom;cinéaste;sineast;Person;;;nom
76;virtopsie;Act;Act;virtuel;viR\tyEl;;;;adjectif;autopsie;otOpsi;Act;autopsy.n.01;act.n.02;nom
77;wikiversitaire;Cognition;Person;wiki;wiki;Institution;;;nom;universitaire;ynivER\sitER\;Person;academician.n.03;person.n.01;adjectif
78;Wikiversité;Cognition;Institution;wiki;wiki;Institution;;;nom;université;ynivER\site;Institution;university.n.03;group.n.01;nom
79;Wiktionnaire;Cognition;Cognition;wiki;wiki;Institution;;;nom;dictionnaire;diksjOnER\;Cognition;dictionary.n.01;artifact.n.01;nom
80;biodiverseptiques;Attribute;Person;biodiversité;bjodivER\site;Group;biodiversity.n.01;attribute.n.02;nom;sceptique;sEptik;Person;skeptic.n.01;person.n.01;adjectif
81;blablatitude;Feeling;Attribute;blabla;blabla;Communication;bombast.n.01;communication.n.02;nom;attitude;atityd;Attribute;stance.n.01;attribute.n.02;nom
82;coronactivité;nan;Act;coronavirus;kOR\OnaviR\ys;Object;;;nom;activité;aktivite;Act;activity.n.01;act.n.02;nom
83;coronalibi;nan;Cognition;coronavirus;kOR\OnaviR\ys;Object;;;nom;alibi;alibi;Cognition;alibi.n.01;communication.n.02;nom
84;coronanxiété;nan;Feeling;coronavirus;kOR\OnaviR\ys;Object;;;nom;anxiété;a~gzjete;Feeling;anxiety.n.01;state.n.02;nom
85;coronapéro;nan;Act;coronavirus;kOR\OnaviR\ys;Object;;;nom;apéro;apeR\o;Act;;;nom
86;coronapocalypse;nan;Event;coronavirus;kOR\OnaviR\ys;Object;;;nom;apocalypse;apokalips;Event;apocalypse.n.01;event.n.01;nom
87;covidiots;nan;Person;covid;kOvid;State;;;nom;idiots;idjo;Person;;;nom
88;covidivorce;nan;Act;covid;kOvid;State;;;nom;divorce;divOR\s;Act;divorce.n.01;act.n.02;nom
89;dénislamisme;Act;Cognition;déni;deni;Act;denial.n.01;act.n.02;nom;islamisme;islamism;Cognition;islamism.n.01;group.n.01;nom
90;distribashing;nan;Act;distribution;distR\ibysjO~;Act;;;nom;bashing;baSiN;Act;;;nom
91;japoniaiserie;nan;Tops;japonais;ZapOnE;;japanese.a.01;;nom, adjectif;niaiserie;njEz@ri;Tops;;;nom
92;macronpatible;nan;;macron;makR\O~;Person;;;nom propre;compatible;kO~patibl;;compatible.a.01;;adjectif
93;mardigital;Time;Event;mardi;maR\di;Time;tuesday.n.01;measure.n.02;nom;digital;diZital;;;;adjectif
94;Mercron;nan;GroupxPerson;merkel;mER\kEl;Person;;;nom propre;macron;makR\O~;Person;macron.n.01;communication.n.02;nom propre
95;Merkozy;nan;GroupxPerson;merkel;mER\kEl;Person;;;nom propre;sarkozy;saR\kozi;Person;;;nom propre
96;pandattitude;Animal;Attribute;panda;pa~da;Animal;giant_panda.n.01;animal.n.01;nom;attitude;atityd;Attribute;stance.n.01;attribute.n.02;nom
97;talibanlieusard;nan;Person;taliban;taliba~;Person;taliban.n.01;group.n.01;nom, adjectif;banlieusard;ba~lj2zaR\;Person;suburban.a.01;;nom
98;yogapéro;Feeling;Act;yoga;jOga;Act;yoga.n.02;act.n.02;nom;apéro;apeR\o;Act;;;nom
